{
    "uuid": "search-provider@gjs.guide",
    "name": "Search Provider Example",
    "description": "An example extension with a search provider",
    "shell-version": [ "45" ],
    "url": "https://gjs.guide/extensions/topics/search-provider"
}